package de.hcsg.training.drools

rule "BMI"
    when
        DataItem(name == "gewicht", $gewicht: doubleValue)
        DataItem(name == "groesse", $groesse: doubleValue)
    then
        insert ( new DataItem("bmi", $gewicht / ( $groesse * $groesse ) ) );
end

rule "Adipositas"
    when
        DataItem(name == "bmi", doubleValue > 30)
    then
        insert ( new DataItem("adipositas", true ) );
end

rule "Adipositas Grad - Untergewicht"
    when
        DataItem(name == "bmi", doubleValue < 18.5)
    then
        insert ( new DataItem("adipositasGrad", "Untergewicht" ) );
end
rule "Adipositas Grad - Normalgewicht"
    when
        DataItem(name == "bmi", doubleValue >= 18.5, doubleValue < 25)
    then
        insert ( new DataItem("adipositasGrad", "Normalgewicht" ) );
end
rule "Adipositas Grad - Übergewicht"
    when
        DataItem(name == "bmi", doubleValue >= 25, doubleValue < 30)
    then
        insert ( new DataItem("adipositasGrad", "Übergewicht" ) );
end
rule "Adipositas Grad - Adipositas Grad I"
    when
        DataItem(name == "bmi", doubleValue >= 30, doubleValue < 35)
    then
        insert ( new DataItem("adipositasGrad", "Adipositas Grad I" ) );
end
rule "Adipositas Grad - Adipositas Grad II"
    when
        DataItem(name == "bmi", doubleValue >= 35, doubleValue < 40)
    then
        insert ( new DataItem("adipositasGrad", "Adipositas Grad II" ) );
end
rule "Adipositas Grad - Adipositas Grad III"
    when
        DataItem(name == "bmi", doubleValue >= 40)
    then
        insert ( new DataItem("adipositasGrad", "Adipositas Grad III" ) );
end